$date
	Thu May  5 09:28:10 2016
$end
$version
	Icarus Verilog
$end
$timescale
	10ps
$end
$scope module division32_TB $end
$scope module div1 $end
$var wire 1 ! clk $end
$var wire 32 " dividend [31:0] $end
$var wire 32 # divisor [31:0] $end
$var wire 1 $ go $end
$var wire 1 % rst $end
$var reg 1 & done $end
$var reg 1 ' next_done $end
$var reg 63 ( next_p [62:0] $end
$var reg 32 ) next_q [31:0] $end
$var reg 32 * next_quotient [31:0] $end
$var reg 63 + next_r [62:0] $end
$var reg 1 , next_state $end
$var reg 32 - next_t [31:0] $end
$var reg 63 . p [62:0] $end
$var reg 32 / q [31:0] $end
$var reg 32 0 quotient [31:0] $end
$var reg 63 1 r [62:0] $end
$var reg 1 2 state $end
$var reg 32 3 t [31:0] $end
$upscope $end
$upscope $end
$enddefinitions $end
#0
$dumpvars
b0 3
02
b0 1
b0 0
b0 /
b0 .
b10000000000000000000000000000000 -
0,
b0xxxxxxxxxxxxxxxxxxxxxxxxxxxxxxxx +
b0 *
b0 )
bx0000000000000000000000000000000 (
0'
0&
1%
0$
bx #
bx "
0!
$end
#5000
1!
#10000
1,
b11000011010100000 +
b1000000000000000000000000000000000000000 (
0!
b100000000 #
b11000011010100000 "
1$
0%
#15000
b100000000000000000000000000000000000000 (
b1000000000000000000000000000000 -
12
b10000000000000000000000000000000 3
b1000000000000000000000000000000000000000 .
b11000011010100000 1
1!
#20000
0!
0$
#25000
b10000000000000000000000000000000000000 (
b100000000000000000000000000000 -
b1000000000000000000000000000000 3
b100000000000000000000000000000000000000 .
1!
#30000
0!
#35000
b1000000000000000000000000000000000000 (
b10000000000000000000000000000 -
b100000000000000000000000000000 3
b10000000000000000000000000000000000000 .
1!
#40000
0!
#45000
b100000000000000000000000000000000000 (
b1000000000000000000000000000 -
b10000000000000000000000000000 3
b1000000000000000000000000000000000000 .
1!
#50000
0!
#55000
b10000000000000000000000000000000000 (
b100000000000000000000000000 -
b1000000000000000000000000000 3
b100000000000000000000000000000000000 .
1!
#60000
0!
#65000
b1000000000000000000000000000000000 (
b10000000000000000000000000 -
b100000000000000000000000000 3
b10000000000000000000000000000000000 .
1!
#70000
0!
#75000
b100000000000000000000000000000000 (
b1000000000000000000000000 -
b10000000000000000000000000 3
b1000000000000000000000000000000000 .
1!
#80000
0!
#85000
b10000000000000000000000000000000 (
b100000000000000000000000 -
b1000000000000000000000000 3
b100000000000000000000000000000000 .
1!
#90000
0!
#95000
b1000000000000000000000000000000 (
b10000000000000000000000 -
b100000000000000000000000 3
b10000000000000000000000000000000 .
1!
#100000
0!
#105000
b100000000000000000000000000000 (
b1000000000000000000000 -
b10000000000000000000000 3
b1000000000000000000000000000000 .
1!
#110000
0!
#115000
b10000000000000000000000000000 (
b100000000000000000000 -
b1000000000000000000000 3
b100000000000000000000000000000 .
1!
#120000
0!
#125000
b1000000000000000000000000000 (
b10000000000000000000 -
b100000000000000000000 3
b10000000000000000000000000000 .
1!
#130000
0!
#135000
b100000000000000000000000000 (
b1000000000000000000 -
b10000000000000000000 3
b1000000000000000000000000000 .
1!
#140000
0!
#145000
b10000000000000000000000000 (
b100000000000000000 -
b1000000000000000000 3
b100000000000000000000000000 .
1!
#150000
0!
#155000
b1000000000000000000000000 (
b10000000000000000 -
b100000000000000000 3
b10000000000000000000000000 .
1!
#160000
0!
#165000
b100000000000000000000000 (
b1000000000000000 -
b10000000000000000 3
b1000000000000000000000000 .
1!
#170000
0!
#175000
b10000000000000000000000 (
b100000000000000 -
b1000000000000000 3
b100000000000000000000000 .
1!
#180000
0!
#185000
b1000000000000000000000 (
b10000000000000 -
b100000000000000 3
b10000000000000000000000 .
1!
#190000
0!
#195000
b100000000000000000000 (
b1000000000000 -
b10000000000000 3
b1000000000000000000000 .
1!
#200000
0!
#205000
b10000000000000000000 (
b100000000000 -
b1000000000000 3
b100000000000000000000 .
1!
#210000
0!
#215000
b1000000000000000000 (
b10000000000 -
b100000000000 3
b10000000000000000000 .
1!
#220000
0!
#225000
b100000000000000000 (
b1000000000 -
b10000000000 3
b1000000000000000000 .
1!
#230000
0!
#235000
b10000000000000000 (
b100000000 -
b1000000000 3
b100000000000000000 .
1!
#240000
0!
#245000
b1000011010100000 +
b100000000 )
b1000000000000000 (
b10000000 -
b100000000 3
b10000000000000000 .
1!
#250000
0!
#255000
b11010100000 +
b110000000 )
b100000000000000 (
b1000000 -
b10000000 3
b1000000000000000 .
b1000011010100000 1
b100000000 /
1!
#260000
0!
#265000
b10000000000000 (
b100000 -
b1000000 3
b100000000000000 .
b11010100000 1
b110000000 /
1!
#270000
0!
#275000
b1000000000000 (
b10000 -
b100000 3
b10000000000000 .
1!
#280000
0!
#285000
b100000000000 (
b1000 -
b10000 3
b1000000000000 .
1!
#290000
0!
#295000
b10000000000 (
b100 -
b1000 3
b100000000000 .
1!
#300000
0!
#305000
b1010100000 +
b110000100 )
b1000000000 (
b10 -
b100 3
b10000000000 .
1!
#310000
0!
#315000
b10100000 +
b110000110 )
b100000000 (
b1 -
b10 3
b1000000000 .
b1010100000 1
b110000100 /
1!
#320000
0!
#325000
0,
1'
b110000110 *
b10000000 (
b0 -
b1 3
b100000000 .
b10100000 1
b110000110 /
1!
#330000
0!
#335000
b11000011010100000 +
b0 )
b1000000000000000000000000000000000000000 (
b10000000000000000000000000000000 -
02
1&
b110000110 0
b0 3
b10000000 .
1!
#340000
0!
#345000
b10000000000000000000000000000000 3
b1000000000000000000000000000000000000000 .
b11000011010100000 1
b0 /
1!
#350000
0!
#355000
1!
#360000
0!
#365000
1!
#370000
0!
#375000
1!
#380000
0!
#385000
b1000000000000000000000000000000 -
12
0&
b101110000000000000000000000000000000 .
b10000010110111000 1
0'
1,
b10000010110111000 +
b10111000000000000000000000000000000 (
1!
b10111 #
b10000010110111000 "
1$
#390000
0!
#395000
b1011100000000000000000000000000000 (
b100000000000000000000000000000 -
b1000000000000000000000000000000 3
b10111000000000000000000000000000000 .
1!
0$
#400000
0!
#405000
b101110000000000000000000000000000 (
b10000000000000000000000000000 -
b100000000000000000000000000000 3
b1011100000000000000000000000000000 .
1!
#410000
0!
#415000
b10111000000000000000000000000000 (
b1000000000000000000000000000 -
b10000000000000000000000000000 3
b101110000000000000000000000000000 .
1!
#420000
0!
#425000
b1011100000000000000000000000000 (
b100000000000000000000000000 -
b1000000000000000000000000000 3
b10111000000000000000000000000000 .
1!
#430000
0!
#435000
b101110000000000000000000000000 (
b10000000000000000000000000 -
b100000000000000000000000000 3
b1011100000000000000000000000000 .
1!
#440000
0!
#445000
b10111000000000000000000000000 (
b1000000000000000000000000 -
b10000000000000000000000000 3
b101110000000000000000000000000 .
1!
#450000
0!
#455000
b1011100000000000000000000000 (
b100000000000000000000000 -
b1000000000000000000000000 3
b10111000000000000000000000000 .
1!
#460000
0!
#465000
b101110000000000000000000000 (
b10000000000000000000000 -
b100000000000000000000000 3
b1011100000000000000000000000 .
1!
#470000
0!
#475000
b10111000000000000000000000 (
b1000000000000000000000 -
b10000000000000000000000 3
b101110000000000000000000000 .
1!
#480000
0!
#485000
b1011100000000000000000000 (
b100000000000000000000 -
b1000000000000000000000 3
b10111000000000000000000000 .
1!
#490000
0!
#495000
b101110000000000000000000 (
b10000000000000000000 -
b100000000000000000000 3
b1011100000000000000000000 .
1!
#500000
0!
#505000
b10111000000000000000000 (
b1000000000000000000 -
b10000000000000000000 3
b101110000000000000000000 .
1!
#510000
0!
#515000
b1011100000000000000000 (
b100000000000000000 -
b1000000000000000000 3
b10111000000000000000000 .
1!
#520000
0!
#525000
b101110000000000000000 (
b10000000000000000 -
b100000000000000000 3
b1011100000000000000000 .
1!
#530000
0!
#535000
b10111000000000000000 (
b1000000000000000 -
b10000000000000000 3
b101110000000000000000 .
1!
#540000
0!
#545000
b1011100000000000000 (
b100000000000000 -
b1000000000000000 3
b10111000000000000000 .
1!
#550000
0!
#555000
b101110000000000000 (
b10000000000000 -
b100000000000000 3
b1011100000000000000 .
1!
#560000
0!
#565000
b10111000000000000 (
b1000000000000 -
b10000000000000 3
b101110000000000000 .
1!
#570000
0!
#575000
b1011100000000000 (
b100000000000 -
b1000000000000 3
b10111000000000000 .
1!
#580000
0!
#585000
b100110110111000 +
b100000000000 )
b101110000000000 (
b10000000000 -
b100000000000 3
b1011100000000000 .
1!
#590000
0!
#595000
b10111000000000 (
b1000000000 -
b10000000000 3
b101110000000000 .
b100110110111000 1
b100000000000 /
1!
#600000
0!
#605000
b1111110111000 +
b101000000000 )
b1011100000000 (
b100000000 -
b1000000000 3
b10111000000000 .
1!
#610000
0!
#615000
b100010111000 +
b101100000000 )
b101110000000 (
b10000000 -
b100000000 3
b1011100000000 .
b1111110111000 1
b101000000000 /
1!
#620000
0!
#625000
b10111000000 (
b1000000 -
b10000000 3
b101110000000 .
b100010111000 1
b101100000000 /
1!
#630000
0!
#635000
b1011111000 +
b101101000000 )
b1011100000 (
b100000 -
b1000000 3
b10111000000 .
1!
#640000
0!
#645000
b11000 +
b101101100000 )
b101110000 (
b10000 -
b100000 3
b1011100000 .
b1011111000 1
b101101000000 /
1!
#650000
0!
#655000
b10111000 (
b1000 -
b10000 3
b101110000 .
b11000 1
b101101100000 /
1!
#660000
0!
#665000
b1011100 (
b100 -
b1000 3
b10111000 .
1!
#670000
0!
#675000
b101110 (
b10 -
b100 3
b1011100 .
1!
#680000
0!
#685000
b10111 (
b1 -
b10 3
b101110 .
1!
#690000
0!
#695000
0,
1'
b101101100001 *
b1 +
b101101100001 )
b1011 (
b0 -
b1 3
b10111 .
1!
#700000
0!
#705000
b10000010110111000 +
b0 )
b101110000000000000000000000000000000 (
b10000000000000000000000000000000 -
02
1&
b101101100001 0
b0 3
b1011 .
b1 1
b101101100001 /
1!
#710000
0!
#715000
b10000000000000000000000000000000 3
b101110000000000000000000000000000000 .
b10000010110111000 1
b0 /
1!
#720000
0!
#725000
1!
#730000
0!
#735000
1!
#740000
0!
#745000
1!
#750000
0!
#755000
b10111000000000000000000000000000000 (
b1000000000000000000000000000000 -
12
0&
0'
1,
1!
1$
#760000
0!
#765000
b1011100000000000000000000000000000 (
b100000000000000000000000000000 -
b1000000000000000000000000000000 3
b10111000000000000000000000000000000 .
1!
0$
#770000
0!
#775000
b101110000000000000000000000000000 (
b10000000000000000000000000000 -
b100000000000000000000000000000 3
b1011100000000000000000000000000000 .
1!
#780000
0!
#785000
b10111000000000000000000000000000 (
b1000000000000000000000000000 -
b10000000000000000000000000000 3
b101110000000000000000000000000000 .
1!
#790000
0!
#795000
b1011100000000000000000000000000 (
b100000000000000000000000000 -
b1000000000000000000000000000 3
b10111000000000000000000000000000 .
1!
#800000
0!
#805000
b101110000000000000000000000000 (
b10000000000000000000000000 -
b100000000000000000000000000 3
b1011100000000000000000000000000 .
1!
#810000
0!
#815000
b10111000000000000000000000000 (
b1000000000000000000000000 -
b10000000000000000000000000 3
b101110000000000000000000000000 .
1!
#820000
0!
#825000
b1011100000000000000000000000 (
b100000000000000000000000 -
b1000000000000000000000000 3
b10111000000000000000000000000 .
1!
#830000
0!
#835000
b101110000000000000000000000 (
b10000000000000000000000 -
b100000000000000000000000 3
b1011100000000000000000000000 .
1!
#840000
0!
#845000
b10111000000000000000000000 (
b1000000000000000000000 -
b10000000000000000000000 3
b101110000000000000000000000 .
1!
#850000
0!
#855000
b1011100000000000000000000 (
b100000000000000000000 -
b1000000000000000000000 3
b10111000000000000000000000 .
1!
#860000
0!
#865000
b101110000000000000000000 (
b10000000000000000000 -
b100000000000000000000 3
b1011100000000000000000000 .
1!
#870000
0!
#875000
b10111000000000000000000 (
b1000000000000000000 -
b10000000000000000000 3
b101110000000000000000000 .
1!
#880000
0!
#885000
b1011100000000000000000 (
b100000000000000000 -
b1000000000000000000 3
b10111000000000000000000 .
1!
#890000
0!
#895000
b101110000000000000000 (
b10000000000000000 -
b100000000000000000 3
b1011100000000000000000 .
1!
#900000
0!
#905000
b10111000000000000000 (
b1000000000000000 -
b10000000000000000 3
b101110000000000000000 .
1!
#910000
0!
#915000
b1011100000000000000 (
b100000000000000 -
b1000000000000000 3
b10111000000000000000 .
1!
#920000
0!
#925000
b101110000000000000 (
b10000000000000 -
b100000000000000 3
b1011100000000000000 .
1!
#930000
0!
#935000
b10111000000000000 (
b1000000000000 -
b10000000000000 3
b101110000000000000 .
1!
#940000
0!
#945000
b1011100000000000 (
b100000000000 -
b1000000000000 3
b10111000000000000 .
1!
#950000
0!
#955000
b100110110111000 +
b100000000000 )
b101110000000000 (
b10000000000 -
b100000000000 3
b1011100000000000 .
1!
#960000
0!
#965000
b10111000000000 (
b1000000000 -
b10000000000 3
b101110000000000 .
b100110110111000 1
b100000000000 /
1!
#970000
0!
#975000
b1111110111000 +
b101000000000 )
b1011100000000 (
b100000000 -
b1000000000 3
b10111000000000 .
1!
#980000
0!
#985000
b100010111000 +
b101100000000 )
b101110000000 (
b10000000 -
b100000000 3
b1011100000000 .
b1111110111000 1
b101000000000 /
1!
#990000
0!
#995000
b10111000000 (
b1000000 -
b10000000 3
b101110000000 .
b100010111000 1
b101100000000 /
1!
#1000000
0!
#1005000
b1011111000 +
b101101000000 )
b1011100000 (
b100000 -
b1000000 3
b10111000000 .
1!
#1010000
0!
#1015000
b11000 +
b101101100000 )
b101110000 (
b10000 -
b100000 3
b1011100000 .
b1011111000 1
b101101000000 /
1!
#1020000
0!
